void()drawVengeance =
{
	local vector posAvenge;
	posAvenge = screen_center;
	posAvenge_x = screen_center_x - ((strlen("Avenge the Fallen!")*14)/2);
	if(dying)
	{	
		drawpic('0 0',"gfx/redscreen",screen_size,'1 1 1',0.6,0);
		drawstring(posAvenge, "Avenge the Fallen!", '14 14', '1 1 1', 1, 0);
	}
	if(vengeance_finished <= 0)
		return;	

	local vector vSize,vPos;
	vSize = draw_getimagesize("gfx/vengeance");

	//pause before shrinking
	if(vengeance_finished <= 1)
	{
		vSize_x = vSize_x * vengeance_finished*vengeance_finished;
		vSize_y = vSize_y * vengeance_finished*vengeance_finished*vengeance_finished;
	}
	vPos_x = screen_center_x - (vSize_x/2);
	vPos_y = screen_center_y - (vSize_y/2);

	drawpic(vPos,"gfx/vengeance",vSize,'1 1 1', 1, 0);	
}

float oldlevel;
void() drawLevel =
{
	local vector pos;
	pos = '50 45';

	if(level_finished > 0)
		level_finished -= 0.03;//drawstring timer for vengeance kill


	drawstring('3 20', ftos(level), '30 30', '1 1 1', 1, 0);
	drawstring(pos,strcat("^2",ftos((100*level+ xp)*10)),'12 12','1 1 1',1,0);


//////levelup//////
	local vector lPos,lSize;
	lSize = '30 30';


	if(oldlevel < level)
	{

		if(time < 10)//stop printing levelup at map load
		{
			oldlevel = level;
			return;
		}
		else
		{
			oldlevel = level;
			level_finished = 1.4;
		}
	}

	if(level_finished <= 0)
		return;

	//pause before shrinking
	if(level_finished <= 1)
	{
		lSize_x = lSize_x * level_finished*level_finished;
		lSize_y = lSize_y * level_finished*level_finished*level_finished;
	}
//	posAvenge_x = screen_center_x - ((strlen("Avenge the Fallen!")*14)/2);

	lPos_x = screen_center_x - ((strlen("Level Up!")*lSize_x)/2);
	lPos_y = screen_center_y - (lSize_y/2);

	drawstring(lPos, "^2Level Up!", lSize, '1 1 1', 1, 0);
}

void() draw_2d =
{	
	drawVengeance();

	local vector pos_health,pos_armor,size_health,size_armor,static_health_size;

	size_health = draw_getimagesize("gfx/health");
	size_health_y = size_health_y/3;

	size_armor = draw_getimagesize("gfx/armor");

	static_health_size = draw_getimagesize("gfx/health");
	
	size_health_x = healthf*2;

	pos_health_x = 0;
	pos_health_y = 5;

	if (size_armor_x > shieldf*2)
	{
		pos_armor_x = (0 - size_armor_x) + shieldf*2;
	}

	else
	{
		pos_armor_x = 0;
	}

	pos_armor_y = 15;

	drawpic(pos_health, "gfx/health", size_health, '1 1 1', 1, 0);
	drawpic(pos_armor, "gfx/armor", size_armor, '1 1 1', 1, 0);

//
	local vector pos_ammo, size_ammo, pos_ammoi, pos_ammo100;

	size_ammo = '25 25';

	size_ammo_x = size_ammo_x;
	size_ammo_y = size_ammo_y;

	pos_ammo_x = screen_size_x - (screen_size_x/5);
	pos_ammo_y = screen_size_y - (size_ammo_y + 7);

	pos_ammo100_x = pos_ammo_x - size_ammo_x;
	pos_ammo100_y = pos_ammo_y;

	pos_ammoi_x = pos_ammo_x + (size_ammo_x*2) + 4;
	pos_ammoi_y = pos_ammo_y;

	ammoImg = strcat("gfx/ammo/", ftos(weaponf));

	drawpic(pos_ammoi, ammoImg, size_ammo, '1 1 1', 1, 0);

	//for infinite ammo.
/*	if(weaponf == 1)
	{
		pos_ammo_x += 20;
		drawpic(pos_ammo, "gfx/infinity", size_ammo*1.1, '1 1 1', 1, 0);
		return;
	}
*/
	if (ammof > 99)
	{
		drawstring(pos_ammo100, ammostr, size_ammo, '1 1 1', 1, 0);
	}
	else
	{
		drawstring(pos_ammo, ammostr, size_ammo, '1 1 1', 1, 0);
	}

	drawLevel();

};
