void() checkLevels
{
	local entity e;
	local float lvl,n;
	e = find(world,classname,"player");
	while(e)
	{
		if(e.classname == "player")
		{
			lvl+=e.level;//level sum
			n++;//number of players
			e = e.chain;
		}

		if(lvl)
			playerlevel = ceil(lvl/=n);//average level
	}
	//set serverflag for playerlevel.
	serverflags = serverflags | (0x10*playerlevel);
};
